1540894135773:log:set TRACE netvirt
1540894142122:log:tail
1540894337056:logout
1540996377239:log:set TRACE netvirt
1540996382066:log:tail
1542102479959:log:set TRACE netvirt
1542102483624:log:tail
1542104062463:logout
1542620866891:log:set NETVIRT trace
1542620882758:log:set TRACE netvirt
1542620886118:log:tail
1542621923259:logut
1542621925095:logout
1542623573896:log:set TRACE netvirt
1542623576938:log:tail
1542624384790:logout
1542624942063:log:tail
1542625863801:logout
1542626872290:log:set TRACE netvirt
1542626876518:log:tail
1542628670034:logout
1542629513833:log:set TRACE netvirt
1542629517955:log:tail
1542629919352:logout
1542630597216:log:set TRACE netvirt
1542630603415:log:tail
1542631542557:logout
1542632086823:log:set TRACE netvirt
1542632089734:log:tail
1542633313130:logout
1545041504928:show install
1545041507514:show installed
1545041602688:feature:list
1545041631860:feature:list || grep installed
1545041639971:feature:list || grep dlux
1545041645196:feature:list || grep -i dlux
1545041657740:feature:list | grep dlux
1545041685796:feature:install odl-dluxapps-nodes
1545041954430:feature:list | grep dlux
1545041975596:feature:install odl-dluxapps-yangutils
1545042294112:feature:list | grep dlux
1545042867639:log:set TRACE netvirt
1545042870609:log:tail
1545045537825:logout
1545059612864:log:set TRACE netvirt
1545059615923:log:tail
